C:\Users\portatil\david\sjava_david\miaplicacion\src\main\java\com\sjava\App.java
C:\Users\portatil\david\sjava_david\miaplicacion\src\main\java\com\sjava\Persona.java
C:\Users\portatil\david\sjava_david\miaplicacion\src\main\java\com\sjava\PersonaController.java
