C:\Users\portatil\david\sjava_david\padelprueba\src\main\java\com\sjava\web\CursoController.java
C:\Users\portatil\david\sjava_david\padelprueba\src\main\java\com\sjava\web\Profesor.java
C:\Users\portatil\david\sjava_david\padelprueba\src\main\java\com\sjava\web\AlumnoController.java
C:\Users\portatil\david\sjava_david\padelprueba\src\main\java\com\sjava\web\Curso.java
C:\Users\portatil\david\sjava_david\padelprueba\src\main\java\com\sjava\web\Alumno.java
C:\Users\portatil\david\sjava_david\padelprueba\src\main\java\com\sjava\web\ProfesorController.java
